Patrick Altmeyer - TrillionDollarWords.jl
…
The entire dataset of all available sentences used in the paper can be loaded as follows:

Code

using TrillionDollarWords
load_all_sentences() |> show

38358×8 DataFrame
   Row │ sentence_id  doc_id  date        event_type        label    sentence  ⋯
       │ Int64        Int64   Date        String31          String7  String    ⋯
───────┼────────────────────────────────────────────────────────────────────────
     1 │           1       1  1996-01-30  meeting minutes   neutral  The Commi ⋯
     2 │           2       1  1996-01-30  meeting minutes   neutral  Consumer
     3 │           3       1  1996-01-30  meeting minutes   dovish   Slower gr
     4 │           4       1  1996-01-30  meeting minutes   hawkish  The deman
     5 │           5       1  1996-01-30  meeting minutes   neutral  The recen ⋯
     6 │           6       1  1996-01-30  meeting minutes   neutral  Nonfarm p
     7 │           7       1  1996-01-30  meeting minutes   hawkish  Job growt
     8 │           8       1  1996-01-30  meeting minutes   hawkish  Elsewhere
     9 │           9       1  1996-01-30  meeting minutes   neutral  The outpu ⋯
    10 │          10       1  1996-01-30  meeting minutes   neutral  Recent in
    11 │          11       1  1996-01-30  meeting minutes   hawkish  Incoming
   ⋮   │      ⋮         ⋮         ⋮              ⋮             ⋮               ⋱
 38349 │       38349      63  2015-09-17  press conference  dovish   monetary
 38350 │       38350      63  2015-09-17  press conference  neutral  When we—w ⋯
 38351 │       38351      63  2015-09-17  press conference  neutral  It’s one
 38352 │       38352      63  2015-09-17  press conference  neutral  1 Chair Y
 38353 │       38353      63  2015-09-17  press conference  neutral  It remain
 38354 │       38354      63  2015-09-17  press conference  neutral  And, reme ⋯
 38355 │       38355      63  2015-09-17  press conference  neutral  It is tru
 38356 │       38356      63  2015-09-17  press conference  dovish   To me, th
 38357 │       38357      63  2015-09-17  press conference  hawkish  And since
 38358 │       38358      63  2015-09-17  press conference  neutral  There hav ⋯
                                                3 columns and 38337 rows omitted

The combined dataset is also available as a DataFrame and can be loaded as follows:

Code

load_all_data() |> show

524395×11 DataFrame
    Row │ sentence_id  doc_id  date        event_type       label    sentence  ⋯
        │ Int64        Int64   Date        String31         String7  String    ⋯
────────┼───────────────────────────────────────────────────────────────────────
      1 │           1       1  1996-01-30  meeting minutes  neutral  The Commi ⋯
      2 │           2       1  1996-01-30  meeting minutes  neutral  Consumer
      3 │           3       1  1996-01-30  meeting minutes  dovish   Slower gr
      4 │           4       1  1996-01-30  meeting minutes  hawkish  The deman
      5 │           5       1  1996-01-30  meeting minutes  neutral  The recen ⋯
      6 │           6       1  1996-01-30  meeting minutes  neutral  Nonfarm p
      7 │           7       1  1996-01-30  meeting minutes  hawkish  Job growt
      8 │           8       1  1996-01-30  meeting minutes  hawkish  Elsewhere
      9 │           9       1  1996-01-30  meeting minutes  neutral  The outpu ⋯
     10 │          10       1  1996-01-30  meeting minutes  neutral  Recent in
     11 │          11       1  1996-01-30  meeting minutes  hawkish  Incoming
   ⋮    │      ⋮         ⋮         ⋮              ⋮            ⋮               ⋱
 524386 │       29435     125  2022-10-12  speech           hawkish  However,
 524387 │       29436     125  2022-10-12  speech           hawkish  My genera ⋯
 524388 │       29429     125  2022-10-12  speech           neutral  I will fo
 524389 │       29430     125  2022-10-12  speech           hawkish  Inflation
 524390 │       29431     125  2022-10-12  speech           neutral  At this p
 524391 │       29432     125  2022-10-12  speech           hawkish  If we do  ⋯
 524392 │       29433     125  2022-10-12  speech           hawkish  However,
 524393 │       29434     125  2022-10-12  speech           hawkish  To bring
 524394 │       29435     125  2022-10-12  speech           hawkish  However,
 524395 │       29436     125  2022-10-12  speech           hawkish  My genera ⋯
                                               6 columns and 524374 rows omitted
…
Basic Model Inference

Using the model and data, layer-wise activations can be computed as below (here for the first 5 sentences). When called on a DataFrame, the layerwise_activations returns a data frame that links activations to sentence identifiers. This makes it possible to relate activations to market data by using the sentence_id key. Alternatively, layerwise_activations also accepts a vector of sentences.

Code

df = load_all_sentences()
mod = load_model(; load_head=false, output_hidden_states=true)
n = 5
queries = df[1:n, :]
layerwise_activations(mod, queries) |> show

122880×4 DataFrame
    Row │ sentence_id  activations  layer  activation_id 
        │ Int64        Float32      Int64  Int64         
────────┼────────────────────────────────────────────────
      1 │           1   0.202931        1              1
      2 │           1  -0.00693996      1              2
      3 │           1   0.12731         1              3
      4 │           1  -0.0129803       1              4
      5 │           1   0.122843        1              5
      6 │           1   0.258675        1              6
      7 │           1   0.0466324       1              7
      8 │           1   0.0318548       1              8
      9 │           1   1.18888         1              9
     10 │           1  -0.0386651       1             10
     11 │           1  -0.116031        1             11
   ⋮    │      ⋮            ⋮         ⋮          ⋮
 122871 │           5  -0.769513       24           1015
 122872 │           5   0.834678       24           1016
 122873 │           5   0.212098       24           1017
 122874 │           5  -0.556661       24           1018
 122875 │           5   0.0957697      24           1019
 122876 │           5   1.04358        24           1020
 122877 │           5   1.71445        24           1021
 122878 │           5   1.162          24           1022
 122879 │           5  -1.58513        24           1023
 122880 │           5  -1.01479        24           1024
                                      122859 rows omitted
…
